{
	"info": {
		"_postman_id": "3c8f5e21-96d9-4235-bca8-c9800ce0702b",
		"name": "Citas App",
		"schema": "https://schema.getpostman.com/json/collection/v2.1.0/collection.json"
	},
	"item": [
		{
			"name": "Modulo medicamentos",
			"item": [
				{
					"name": "Listar todos los medicamentos",
					"request": {
						"method": "GET",
						"header": [],
						"url": {
							"raw": "http://localhost:4000/drugs",
							"protocol": "http",
							"host": [
								"localhost"
							],
							"port": "4000",
							"path": [
								"drugs"
							]
						}
					},
					"response": []
				},
				{
					"name": "Crear medicamentos",
					"request": {
						"method": "POST",
						"header": [],
						"body": {
							"mode": "raw",
							"raw": "{\n    \"name\": \"Condones\",\n    \"factory\": \"Tody\",\n    \"barcode\": \"1qaz2wsx\"\n}",
							"options": {
								"raw": {
									"language": "json"
								}
							}
						},
						"url": {
							"raw": "http://localhost:4000/drugs",
							"protocol": "http",
							"host": [
								"localhost"
							],
							"port": "4000",
							"path": [
								"drugs"
							]
						}
					},
					"response": []
				}
			]
		},
		{
			"name": "Modulo medico",
			"item": [
				{
					"name": "Crear citas medicas",
					"request": {
						"method": "POST",
						"header": [],
						"body": {
							"mode": "raw",
							"raw": "{\n    \"doctorDNI\": \"1030679945\",\n    \"date\": \"2023-08-18\",\n    \"address\": \"Calle 21 5 - 52\"\n}",
							"options": {
								"raw": {
									"language": "json"
								}
							}
						},
						"url": {
							"raw": "http://localhost:4000/meetings",
							"protocol": "http",
							"host": [
								"localhost"
							],
							"port": "4000",
							"path": [
								"meetings"
							]
						}
					},
					"response": []
				},
				{
					"name": "Crear un doctor",
					"request": {
						"method": "POST",
						"header": [],
						"body": {
							"mode": "raw",
							"raw": "{\n    \"DNI\": \"1030679945\",\n    \"password\": \"qazwsxedc\",\n    \"name\": \"Daniel Steven\",\n    \"lastName\": \"Sarmiento Santos\",\n    \"birthday\": \"1997-08-19\"\n}",
							"options": {
								"raw": {
									"language": "json"
								}
							}
						},
						"url": {
							"raw": "http://localhost:4000/doctors",
							"protocol": "http",
							"host": [
								"localhost"
							],
							"port": "4000",
							"path": [
								"doctors"
							]
						}
					},
					"response": []
				},
				{
					"name": "Listar citas de un doctor",
					"request": {
						"method": "GET",
						"header": [],
						"url": {
							"raw": "http://localhost:4000/meetings/doctor/1030679945",
							"protocol": "http",
							"host": [
								"localhost"
							],
							"port": "4000",
							"path": [
								"meetings",
								"doctor",
								"1030679945"
							]
						}
					},
					"response": []
				}
			]
		},
		{
			"name": "Modulo pacientes",
			"item": [
				{
					"name": "Crear un paciente",
					"request": {
						"method": "POST",
						"header": [],
						"body": {
							"mode": "raw",
							"raw": "{\n    \"DNI\": \"1030679944\",\n    \"password\": \"qazwsxedc\",\n    \"name\": \"Daniel Steven\",\n    \"lastName\": \"Sarmiento Santos\",\n    \"birthday\": \"1997-08-19\"\n}",
							"options": {
								"raw": {
									"language": "json"
								}
							}
						},
						"url": {
							"raw": "http://localhost:4000/patients",
							"protocol": "http",
							"host": [
								"localhost"
							],
							"port": "4000",
							"path": [
								"patients"
							]
						}
					},
					"response": []
				},
				{
					"name": "Listar citas medicas de un paciente",
					"request": {
						"method": "GET",
						"header": [],
						"url": {
							"raw": "http://localhost:4000/meetings/patient/1030679945",
							"protocol": "http",
							"host": [
								"localhost"
							],
							"port": "4000",
							"path": [
								"meetings",
								"patient",
								"1030679945"
							]
						}
					},
					"response": []
				}
			]
		}
	]
}